Survival Models (MATH3085/6143)
…
The form of the model helps us to understand the real-world process by which the data were generated.

If the model explains the observed data well, then it should also inform us about future (or unobserved) data, and hence help us to make predictions (and decisions).

The use of statistical models also allows us to quantify the uncertainty associated with any conclusions, predictions or decisions we make.

We rarely believe in our models, but regard them as temporary constructs subject to improvement.

Example: Leukaemia

Survival times are given for 33 patients who died from acute myelogenous leukaemia. In R, this can be found in the leuk object in the MASS package.

as_tibble(leuk)

# A tibble: 33 × 3
     wbc ag       time
   <int> <fct>   <int>
 1  2300 present    65
 2   750 present   156
 3  4300 present   100
 4  2600 present   134
 5  6000 present    16
 6 10500 present   108
 7 10000 present   121
 8 17000 present     4
 9  5400 present    39
10  7000 present   143
# ℹ 23 more rows
…
