Survival Models (MATH3085/6143)
…
Using a Normal approximation, a \(100(1 - \alpha)\%\) confidence interval is \[
\hat{\beta} \pm z_{\left(1-\frac{\alpha}{2}\right)} \cdot \frac{\hat{\beta}}{\sqrt{d_+}}.
\]

Gehan data

Remission times (before relapsing), in weeks, from a clinical trial of 42 leukaemia patients. Patients matched in pairs and randomised to 6-mercaptopurine (drug) or control. In R, data is found in the MASS package in the gehan object.

library("MASS")
as_tibble(gehan)

# A tibble: 42 × 4
    pair  time  cens treat  
   <int> <int> <int> <fct>  
 1     1     1     1 control
 2     1    10     1 6-MP   
 3     2    22     1 control
 4     2     7     1 6-MP   
 5     3     3     1 control
 6     3    32     0 6-MP   
 7     4    12     1 control
 8     4    23     1 6-MP   
 9     5     8     1 control
10     5    22     1 6-MP   
# ℹ 32 more rows
…
